<?xml version="1.0" encoding="iso-8859-1"?>
<svg xmlns="http://www.w3.org/2000/svg" xmlns:xlink="http://www.w3.org/1999/xlink" version="1.1" id="Layer_1" x="0px" y="0px" viewBox="0 0 455 455" style="enable-background:new 0 0 455 455;" xml:space="preserve" width="512px" height="512px">
	<rect y="312.5" width="455" height="30" fill="#FFFFFF"/>
	<rect y="212.5" width="455" height="30" fill="#FFFFFF"/>
	<rect y="112.5" width="455" height="30" fill="#FFFFFF"/>
</svg>
