<svg version="1.1" id="Layer_1" xmlns="http://www.w3.org/2000/svg" xmlns:xlink="http://www.w3.org/1999/xlink" x="0px" y="0px"
	 width="98.376px" height="89.475px" viewBox="0 0 98.376 89.475" enable-background="new 0 0 98.376 89.475" xml:space="preserve">
<polyline fill="none" stroke="#4E5053" stroke-width="2" stroke-miterlimit="10" points="38.145,55.925 41.936,68.008 
	35.888,68.008 "/>
<polyline fill="none" stroke="#4E5053" stroke-width="2" stroke-miterlimit="10" points="32.839,55.866 43.073,88.475 
	23.416,88.475 13.182,55.866 "/>
<polyline fill="none" stroke="#4E5053" stroke-width="2" stroke-miterlimit="10" points="11.366,56.069 13.507,62.891 
	41.041,56.069 "/>
<polygon fill="none" stroke="#4E5053" stroke-width="2" stroke-miterlimit="10" points="42.747,23.1 42.747,56.426 91.4,77.391 
	91.4,2.138 "/>
<polyline fill="none" stroke="#4E5053" stroke-width="2" stroke-miterlimit="10" points="7.202,25.732 1,25.732 1,53.795 
	7.202,53.795 "/>
<rect x="6.928" y="23.458" fill="none" stroke="#4E5053" stroke-width="2" stroke-miterlimit="10" width="35.577" height="32.61"/>
<rect x="91.501" y="1" fill="none" stroke="#4E5053" stroke-width="2" stroke-miterlimit="10" width="5.875" height="77.525"/>
<rect x="91.501" y="35.667" fill="none" stroke="#4E5053" stroke-width="2" stroke-miterlimit="10" width="5.875" height="42.858"/>
<rect x="91.501" y="1" fill="none" stroke="#4E5053" stroke-width="2" stroke-miterlimit="10" width="5.875" height="77.525"/>
<polygon fill="none" stroke="#4E5053" stroke-width="2" stroke-miterlimit="10" points="42.747,23.1 42.747,56.426 91.4,77.391 
	91.4,2.138 "/>
<rect x="6.928" y="23.458" fill="none" stroke="#4E5053" stroke-width="2" stroke-miterlimit="10" width="35.577" height="32.61"/>
<line fill="none" stroke="#4E5053" stroke-width="2" stroke-miterlimit="10" x1="10.971" y1="29.985" x2="33.971" y2="29.985"/>
</svg>
